<svg height='18px' width='18px' fill="#FFFFFF" xmlns="http://www.w3.org/2000/svg"
     xmlns:xlink="http://www.w3.org/1999/xlink" version="1.1" x="0px" y="0px" viewBox="0 0 100 100"
     enable-background="new 0 0 100 100" xml:space="preserve"><polygon fill="#FFFFFF" points="26.859,16.298 27.037,17.333 29.449,18.358 30.307,17.754 31.393,15.231 31.164,14.169   28.77,13.194 27.887,13.774 "></polygon>
    <polygon fill="#FFFFFF"
             points="25.92,18.489 25.531,19.475 29.014,20.933 29.424,19.951 29.223,18.913 26.803,17.884 "></polygon>
    <polygon fill="#FFFFFF"
             points="24.289,19.767 29.695,21.985 29.695,21.986 29.697,21.986 31.422,22.714 31.467,22.61   29.059,21.603 25.027,19.915 22.596,18.937 22.559,19.036 24.287,19.767 "></polygon>
    <path fill="#FFFFFF"
          d="M23.512,20.538l-1.037,2.412l0.162,0.072l1.148-2.817l-1.447-0.61l-0.053,0.125l1.062,0.42  c0.002,0.001,0.002,0.003,0.004,0.004c0,0,0.002,0,0.004,0c0.033,0.014,0.043,0.048,0.068,0.07c0.031,0.03,0.072,0.051,0.088,0.091  c0.014,0.031,0,0.065,0.002,0.099c0.002,0.043,0.02,0.084,0.002,0.126c0,0.002-0.002,0.003-0.004,0.005  C23.512,20.535,23.512,20.536,23.512,20.538z"></path>
    <path fill="#FFFFFF"
          d="M28.314,11.479l0.354,1.007l0.193,0.097l2.676,1.09c0.002,0,0.004,0.003,0.006,0.004s0.004,0,0.006,0  l0.209,0.096l0.588-0.312l-0.828-0.087c-0.002-0.001-0.004-0.004-0.006-0.004c-0.016-0.002-0.031-0.002-0.045-0.007l-1.188-0.344  c-0.014-0.004-0.018-0.019-0.029-0.023c-0.021-0.009-0.043-0.007-0.061-0.019l-1.156-0.812c-0.008-0.006-0.008-0.016-0.014-0.022  c-0.02-0.015-0.041-0.026-0.057-0.047l-0.672-0.923L28.314,11.479z"></path>
    <path fill="#FFFFFF"
          d="M43.896,73.288l-0.486,0.345c-0.004,0.002-0.006,0.001-0.01,0.003c-0.002,0.001-0.002,0.004-0.004,0.006  l-0.844,0.531l-0.223,0.148l-0.344,0.514c0,0.002-0.002,0.002-0.002,0.003s0,0.001,0,0.002l-0.562,0.812l-0.152,0.227l-0.113,0.597  l-0.188,0.969c0,0.001,0,0.002,0,0.002L40.918,77.7l0.352,1.853l1.059,1.556l1.557,1.059l1.852,0.353l1.822-0.353l1.586-1.057  l1.027-1.556l0.352-1.847l-0.141-0.561c0-0.004,0.004-0.008,0.002-0.012c0-0.006-0.006-0.008-0.006-0.013l-0.156-0.964l-0.049-0.275  l-0.367-0.508c-0.002-0.002,0-0.004-0.002-0.006s-0.004-0.004-0.006-0.006l-0.531-0.812c-0.002-0.002,0-0.006-0.002-0.008  c-0.002-0.005-0.008-0.006-0.01-0.011l-0.119-0.215l-0.529-0.333c-0.002-0.002-0.002-0.004-0.002-0.005  c-0.004-0.001-0.006-0.001-0.008-0.003l-0.803-0.555l-0.229-0.127l-0.617-0.147l-0.922-0.185l-0.291-0.053l-0.633,0.115  l-0.916,0.184L43.896,73.288z"></path>
    <path fill="#FFFFFF"
          d="M49.527,81.575L47.84,82.7c-0.023,0.016-0.051,0.014-0.076,0.022c-0.014,0.005-0.02,0.02-0.033,0.022  l-1.938,0.375c-0.018,0.004-0.037,0.006-0.057,0.006c-0.018,0-0.037-0.002-0.055-0.006l-1.969-0.375  c-0.016-0.003-0.021-0.018-0.035-0.023c-0.027-0.008-0.055-0.007-0.078-0.023l-1.656-1.125c-0.008-0.006-0.008-0.016-0.016-0.021  c-0.021-0.019-0.047-0.033-0.064-0.059l-0.59-0.869l0.006,0.037l0.455,1.396l0.539,1.188h6.898l0.564-1.183l0.428-1.402v-0.006  l-0.553,0.838c-0.018,0.027-0.045,0.043-0.07,0.062C49.535,81.56,49.535,81.569,49.527,81.575z"></path>
    <polygon fill="#FFFFFF" points="49.471,72.789 72.891,32.247 71.533,31.455 48.115,71.997 "></polygon>
    <path fill="#FFFFFF"
          d="M47.553,72.364l-0.863-0.501l-1.17,0.279l-0.713,0.311l0.207-0.02l0.67-0.122  c0.02-0.004,0.033,0.012,0.053,0.012s0.035-0.016,0.055-0.012l0.316,0.058h0.285c0.018,0,0.025,0.015,0.041,0.017  c0.016,0.003,0.029-0.009,0.045-0.004l0.611,0.184l0.654,0.155c0.014,0.003,0.02,0.02,0.033,0.024  c0.014,0.006,0.029-0.002,0.043,0.006l0.266,0.146l0.293,0.118c0.018,0.007,0.021,0.026,0.037,0.036s0.035,0.004,0.049,0.017  l0.482,0.422l0.574,0.362c0.023,0.015,0.025,0.043,0.043,0.061c0.02,0.02,0.047,0.023,0.061,0.048l0.125,0.228l0.234,0.182  c0.021,0.017,0.021,0.046,0.039,0.067c0.016,0.021,0.041,0.028,0.053,0.053l0.236,0.562l0.387,0.535  c0.014,0.02,0.006,0.043,0.014,0.063c0.004,0.008,0.012,0.013,0.014,0.021l-0.066-0.562l-0.391-1.172l-0.836-0.475  c0,0,0-0.001-0.002-0.002c0,0,0,0-0.002,0l-1.875-1.094C47.555,72.365,47.555,72.364,47.553,72.364z"></path>
    <polygon fill="#FFFFFF"
             points="34.35,91.994 40.674,91.994 50.768,91.994 57.094,91.994 57.094,91.156 34.35,91.156 "></polygon>
    <polygon fill="#FFFFFF"
             points="34.699,85.145 34.35,86.488 34.35,87.846 34.982,89.088 56.486,89.088 57.094,87.849 57.094,86.487   56.771,85.142 55.805,83.844 49.363,83.844 49.361,83.845 49.359,83.844 42.082,83.844 42.08,83.845 42.078,83.844 35.668,83.844   "></polygon>
    <polygon fill="#FFFFFF" points="34.982,89.688 34.539,90.557 56.912,90.557 56.486,89.688 "></polygon>
    <polygon fill="#FFFFFF"
             points="34.145,6.979 33.031,6.266 31.768,6.036 30.477,6.266 29.422,6.979 28.645,8.101 28.416,9.357   28.645,10.642 29.418,11.7 30.484,12.45 31.766,12.706 33.027,12.449 34.145,11.703 34.861,10.644 35.119,9.358 34.861,8.098 "></polygon>
    <polygon fill="#FFFFFF" points="35.758,11.883 69.578,25.903 70.217,24.424 36.395,10.403 "></polygon>
    <path fill="#FFFFFF"
          d="M73.975,32.167l1.049-0.193l0.352-0.155l-0.426,0.083c-0.018,0.004-0.037,0.006-0.057,0.006  c-0.018,0-0.035-0.002-0.055-0.006l-0.475-0.089c0,0,0,0.001-0.002,0.001c-0.037,0-0.074-0.008-0.111-0.022l-0.129-0.052  l-0.941-0.182c-0.008-0.002-0.01-0.01-0.018-0.012c-0.02-0.006-0.041-0.005-0.059-0.015L72.041,31  c-0.012-0.005-0.012-0.019-0.021-0.024c-0.012-0.008-0.025-0.004-0.037-0.014l-0.906-0.75c-0.006-0.006-0.006-0.016-0.012-0.021  s-0.014-0.003-0.02-0.01l-0.17-0.189l0.146,0.477l0.551,0.316c0.002,0,0.002,0,0.002,0h0.002l1.875,1.094v0.001L73.975,32.167z"></path>
    <polygon fill="#FFFFFF"
             points="64.688,92.594 60.33,92.594 57.393,92.594 51.068,92.594 51.068,93.463 64.688,93.463 "></polygon>
    <path fill="#FFFFFF"
          d="M35.402,10.878c-0.008,0.018,0,0.037-0.01,0.053l-0.781,1.156c-0.02,0.027-0.045,0.043-0.07,0.062  c-0.006,0.005-0.006,0.014-0.014,0.02l-0.967,0.645l0.334-0.033l0.988-0.32l0.199-0.523c0-0.001,0.002-0.001,0.002-0.002  c0.002-0.002,0-0.004,0-0.006c0,0,0.002,0,0.002-0.002c0,0,0-0.001,0-0.002l0.871-2.022l0.002-0.005l0.199-0.521l-0.486-0.919  l-0.168-0.209l0.215,1.047c0.004,0.021-0.012,0.039-0.012,0.061c0,0.021,0.016,0.037,0.012,0.059l-0.281,1.406  C35.432,10.845,35.412,10.857,35.402,10.878z"></path>
    <path fill="#FFFFFF"
          d="M70.014,26.409l-0.209,0.549l0.328,0.984l0.301,0.48l-0.211-1.137c-0.004-0.02,0.012-0.035,0.012-0.055  s-0.016-0.035-0.012-0.055l0.312-1.688c0.004-0.022,0.025-0.033,0.035-0.054c0.008-0.021,0-0.043,0.014-0.062l0.969-1.406  c0.012-0.018,0.033-0.018,0.047-0.031s0.016-0.036,0.031-0.047l0.998-0.673l-0.602,0.143L71.1,23.823l-0.207,0.547  c-0.002,0.001-0.002,0.002-0.004,0.004c0,0,0.002,0.002,0,0.004c0,0-0.002,0.001-0.002,0.002c0,0,0,0.001,0,0.002l-0.871,2.022  L70.014,26.409z"></path>
    <path fill="#FFFFFF"
          d="M71.113,25.662l-0.291,1.569l0.291,1.569l0.898,1.306l1.34,0.873l0.91,0.176  c0.008,0.002,0.01,0.01,0.018,0.012s0.014-0.004,0.021-0.002l0.166,0.057l0.426,0.08l0.9-0.175l0.246-0.062  c0.002-0.001,0.004,0.002,0.008,0.001c0.002-0.001,0.004-0.003,0.006-0.004l0.41-0.082l0.701-0.468c0.002,0,0.002,0,0.004,0  c0-0.001,0-0.002,0.002-0.003l0.34-0.217l0.258-0.181l0.406-0.609c0.002-0.002,0.002-0.002,0.004-0.002c0-0.001,0-0.002,0-0.002  l0.336-0.488V29.01l0.131-0.212l0.143-0.568l0.154-0.829l0.023-0.169l-0.057-0.419l-0.244-1.044c-0.002-0.002,0-0.003,0-0.005  s-0.002-0.003-0.002-0.005l-0.021-0.1l-0.127-0.206c0-0.001,0-0.001,0-0.002L77.801,24.4c0-0.001,0-0.001-0.002-0.003l-0.037-0.055  l-0.107-0.087l-1.205-0.772c-0.004-0.002-0.004-0.008-0.008-0.01c-0.01-0.007-0.018-0.021-0.027-0.03l-1.52-0.282l-1.541,0.291  l-1.34,0.902L71.113,25.662z"></path>
    <path fill="#FFFFFF"
          d="M30.105,22.956l1.031,0.441l0.055-0.13l-1.449-0.611l-1.174,2.818l0.133,0.054l1.01-2.412  c0-0.001,0-0.001,0-0.002c0,0,0,0,0-0.001c0.012-0.026,0.041-0.035,0.059-0.057c0.033-0.039,0.061-0.085,0.107-0.103  c0.035-0.015,0.074,0,0.111,0c0.039,0,0.076-0.016,0.115,0v0.002H30.105z"></path>
    <rect x="31.443" y="91.156" fill="#FFFFFF" width="2.307" height="0.838"></rect>
    <rect x="57.693" y="91.156" fill="#FFFFFF" width="2.338" height="0.838"></rect>
    <polygon fill="#FFFFFF"
             points="40.375,92.594 34.049,92.594 31.143,92.594 26.756,92.594 26.756,93.463 40.375,93.463 "></polygon></svg>